…
``` r
# join detections to checklist land cover
det_with_hab <- detections |>
  left_join(checklists |> select(checklist_ID, land_cover), by = "checklist_ID")

species_habitat <- det_with_hab |>
  group_by(land_cover, scientific_name) |>
  summarise(n_checklists = n_distinct(checklist_ID),
            total_count  = sum(count), .groups = "drop")

species_habitat
```

    # A tibble: 3,841 × 4
       land_cover  scientific_name       n_checklists total_count
       <chr>       <chr>                        <int>       <dbl>
     1 agriculture Accipiter striatus               2           2
     2 agriculture Actitis macularius              10          35
     3 agriculture Agelaius phoeniceus              7         149
     4 agriculture Aimophila rufescens              7           8
     5 agriculture Amazilia candida                 1           4
     6 agriculture Amazilia cyanocephala            6           8
     7 agriculture Amazilia rutila                  2           4
     8 agriculture Amazilia tzacatl                 7          13
     9 agriculture Amazona albifrons                4          11
    10 agriculture Amazona autumnalis              11          36
    # ℹ 3,831 more rows

## 3.2. Most frequently detected species per land cover

``` r
species_habitat |>
  group_by(land_cover) |>
  slice_max(order_by = n_checklists, n = 5) |>
  arrange(land_cover, desc(n_checklists))
```

    # A tibble: 30 × 4
    # Groups:   land_cover [6]
       land_cover  scientific_name      n_checklists total_count
       <chr>       <chr>                       <int>       <dbl>
     1 agriculture Cathartes aura                 60         383
     2 agriculture Sporophila morelleti           46         270
     3 agriculture Coragyps atratus               42         521
     4 agriculture Quiscalus mexicanus            41         438
     5 agriculture Dives dives                    34         107
     6 forest      Myiozetetes similis          6400       19010
     7 forest      Dives dives                  6204       21467
     8 forest      Turdus grayi                 6060       18410
     9 forest      Melanerpes aurifrons         5998       12106
    10 forest      Coragyps atratus             5804       38600
    # ℹ 20 more rows
…
